{
    "version": 20230526.1,
    "content": "新增：淘宝预售任务。\n修复：一些bug。\n\n请更新到最新版本",
    "url": "https://wwwb.lanzouw.com/b02pys7pc",
    "notice": "无障碍有问题的，反复开关几次。如果还是不行，清除APP缓存，重新授权。",
    "mainTask":{
        "jd":"京东拆快递任务",
        "tb":"淘宝主会场任务",
        "tbys":"淘宝预售任务（已结束）"
    }
}
